; Engine configuration file.
; It's best edited using the editor UI and not directly,
; since the parameters that go here are not all obvious.
;
; Format:
;   [section] ; section goes between []
;   param=value ; assign values to parameters

config_version=4

_global_script_classes=[ {
"base": "RichTextLabel",
"class": "Message",
"language": "GDScript",
"path": "res://panels/yarn_panel/messages/message.gd"
}, {
"base": "TextaPanel",
"class": "Optionlist",
"language": "GDScript",
"path": "res://panels/option_list/option_list.gd"
}, {
"base": "TextaPanel",
"class": "PictureFrame",
"language": "GDScript",
"path": "res://panels/picture_frame/picture_frame.gd"
}, {
"base": "MarginContainer",
"class": "TextaPanel",
"language": "GDScript",
"path": "res://panels/texta_panel.gd"
}, {
"base": "Control",
"class": "UI",
"language": "GDScript",
"path": "res://game.gd"
}, {
"base": "Node",
"class": "Yarn",
"language": "GDScript",
"path": "res://addons/yarn_loader/yarn.gd"
}, {
"base": "Node",
"class": "YarnPlayer",
"language": "GDScript",
"path": "res://addons/yarn_loader/yarn_player.gd"
} ]
_global_script_class_icons={
"Message": "",
"Optionlist": "",
"PictureFrame": "",
"TextaPanel": "",
"UI": "",
"Yarn": "",
"YarnPlayer": "res://addons/yarn_loader/yarn_player.png"
}

[application]

config/name="Texta"
config/description="A brand new Texta game."
run/main_scene="res://game.tscn"
config/icon="res://build/icon.png"

[autoload]

_YarnStore="*res://addons/yarn_loader/yarn_store.gd"

[display]

window/size/width=1920
window/size/height=1080
window/size/test_width=1280
window/size/test_height=720
window/dpi/allow_hidpi=true
window/stretch/mode="2d"
window/stretch/aspect="keep"

[editor_plugins]

enabled=PoolStringArray( "yarn_loader" )

[rendering]

quality/driver/driver_name="GLES2"
vram_compression/import_etc=true
vram_compression/import_etc2=false
