[gd_scene load_steps=3 format=2]

[ext_resource path="res://panels/texta_panel.tscn" type="PackedScene" id=1]
[ext_resource path="res://panels/picture_frame/picture_frame.gd" type="Script" id=2]

[node name="PictureFrame" instance=ExtResource( 1 )]
script = ExtResource( 2 )
title = "picture"

[node name="Label" parent="LabelPivot" index="0"]
text = "picture"

[node name="TextureRect" type="TextureRect" parent="." index="1"]
margin_left = 32.0
margin_top = 32.0
margin_right = 570.0
margin_bottom = 474.0
expand = true
stretch_mode = 6
