[gd_scene load_steps=10 format=2]

[ext_resource path="res://assets/fonts/courier_prime/CourierPrime-Bold.ttf" type="DynamicFontData" id=1]
[ext_resource path="res://assets/fonts/courier_prime/CourierPrime-Regular.ttf" type="DynamicFontData" id=2]
[ext_resource path="res://assets/fonts/courier_prime/CourierPrime-BoldItalic.ttf" type="DynamicFontData" id=3]
[ext_resource path="res://panels/yarn_panel/messages/message.gd" type="Script" id=4]
[ext_resource path="res://assets/fonts/courier_prime/CourierPrime-Italic.ttf" type="DynamicFontData" id=5]

[sub_resource type="DynamicFont" id=1]
size = 24
use_mipmaps = true
use_filter = true
extra_spacing_top = 3
font_data = ExtResource( 3 )

[sub_resource type="DynamicFont" id=2]
size = 24
use_mipmaps = true
use_filter = true
extra_spacing_top = 3
font_data = ExtResource( 5 )

[sub_resource type="DynamicFont" id=3]
size = 24
use_mipmaps = true
use_filter = true
extra_spacing_top = 3
font_data = ExtResource( 1 )

[sub_resource type="DynamicFont" id=4]
size = 24
use_mipmaps = true
use_filter = true
extra_spacing_top = 3
font_data = ExtResource( 2 )

[node name="Message" type="RichTextLabel"]
anchor_right = 1.0
margin_bottom = 32.0
size_flags_horizontal = 3
size_flags_vertical = 0
custom_fonts/bold_italics_font = SubResource( 1 )
custom_fonts/italics_font = SubResource( 2 )
custom_fonts/bold_font = SubResource( 3 )
custom_fonts/normal_font = SubResource( 4 )
custom_colors/default_color = Color( 1, 1, 1, 1 )
bbcode_enabled = true
bbcode_text = "This is a [b]message[/b] which is [color=#ff0000]important[/color]."
text = "This is a message which is important."
fit_content_height = true
scroll_active = false
script = ExtResource( 4 )
__meta__ = {
"_edit_use_anchors_": false
}
